Exploring the relationship between poverty and homicide rates from the Mexican War on Drugs – Diego Flores
…
         state        muncode      municipio           year        areakm2 
             0              0              0              0              0 
    population       popn_10k dist_us_border        gdp_usd       same_all 
             9              9              0              8              5 
same_state_mun  same_mun_exec 
             5              5 

Warning: Unknown or uninitialised column: `total_govt_transfer`.

# A tibble: 2,463 × 3
   muncode  year marihuana
     <dbl> <dbl>     <dbl>
 1    1001  2010    296.  
 2    1002  2010      0   
 3    1003  2010     31.2 
 4    1004  2010      0   
 5    1005  2010      0   
 6    1006  2010      2.10
 7    1007  2010      0   
 8    1008  2010      0   
 9    1009  2010      0   
10    1010  2010      0   
# ℹ 2,453 more rows
…
